<?xml version="1.0" encoding="UTF-8" standalone="no"?>
<svg
   xmlns:dc="http://purl.org/dc/elements/1.1/"
   xmlns:cc="http://creativecommons.org/ns#"
   xmlns:rdf="http://www.w3.org/1999/02/22-rdf-syntax-ns#"
   xmlns:svg="http://www.w3.org/2000/svg"
   xmlns="http://www.w3.org/2000/svg"
   xmlns:sodipodi="http://sodipodi.sourceforge.net/DTD/sodipodi-0.dtd"
   xmlns:inkscape="http://www.inkscape.org/namespaces/inkscape"
   sodipodi:docname="bad_configuration_no_delaunay_1 - Kopie.svg"
   id="svg8"
   version="1.1"
   viewBox="0 0 80 60"
   height="60mm"
   width="80mm"
   inkscape:version="1.0 (4035a4fb49, 2020-05-01)">
  <defs
     id="defs2" />
  <sodipodi:namedview
     id="base"
     pagecolor="#ffffff"
     bordercolor="#666666"
     borderopacity="1.0"
     inkscape:pageopacity="0.0"
     inkscape:pageshadow="2"
     inkscape:zoom="26.191582"
     inkscape:cx="18.792598"
     inkscape:cy="209.60052"
     inkscape:document-units="mm"
     inkscape:current-layer="layer2"
     inkscape:document-rotation="0"
     showgrid="true"
     showguides="false"
     inkscape:window-width="1920"
     inkscape:window-height="1013"
     inkscape:window-x="-9"
     inkscape:window-y="-9"
     inkscape:window-maximized="1">
    <inkscape:grid
       type="xygrid"
       id="grid10"
       originx="-20"
       originy="-100" />
  </sodipodi:namedview>
  <metadata
     id="metadata5">
    <rdf:RDF>
      <cc:Work
         rdf:about="">
        <dc:format>image/svg+xml</dc:format>
        <dc:type
           rdf:resource="http://purl.org/dc/dcmitype/StillImage" />
        <dc:title />
      </cc:Work>
    </rdf:RDF>
  </metadata>
  <g
     inkscape:label="Ebene 1"
     inkscape:groupmode="layer"
     id="layer1"
     style="display:inline"
     transform="translate(-20,-100)">
    <rect
       style="display:inline;opacity:1;fill:none;fill-opacity:1;stroke:#343a40;stroke-width:0.500259;stroke-miterlimit:4;stroke-dasharray:none;stroke-opacity:1"
       id="rect1059"
       width="79.499741"
       height="59.499741"
       x="20.25013"
       y="100.25013" />
    <circle
       style="fill:none;stroke:#343a40;stroke-width:0.499999;stroke-miterlimit:4;stroke-dasharray:none;stroke-opacity:1"
       id="path892"
       cx="58.375"
       cy="138"
       r="13.21" />
    <path
       style="fill:none;stroke:#e37222;stroke-width:0.5;stroke-linecap:butt;stroke-linejoin:miter;stroke-miterlimit:4;stroke-dasharray:none;stroke-opacity:1"
       d="m 47.563184,130.39104 16.873601,-9.78205"
       id="path52" />
    <path
       style="fill:none;stroke:#e37222;stroke-width:0.5;stroke-linecap:butt;stroke-linejoin:miter;stroke-miterlimit:4;stroke-dasharray:none;stroke-opacity:1"
       d="m 54.586853,130.41314 9.826294,-9.82629"
       id="path878" />
    <path
       style="fill:none;stroke:#e37222;stroke-width:0.5;stroke-linecap:butt;stroke-linejoin:miter;stroke-miterlimit:4;stroke-dasharray:none;stroke-opacity:1"
       d="m 47.5,145.5 v -15"
       id="path880" />
    <path
       style="fill:none;stroke:#e37222;stroke-width:0.5;stroke-linecap:butt;stroke-linejoin:miter;stroke-miterlimit:4;stroke-dasharray:none;stroke-opacity:1"
       d="m 47.5,130.536 h 7"
       id="path882" />
    <path
       style="fill:none;stroke:#e37222;stroke-width:0.5;stroke-linecap:butt;stroke-linejoin:miter;stroke-miterlimit:4;stroke-dasharray:none;stroke-opacity:1"
       d="m 47.544338,145.37895 23.911308,-8.7579"
       id="path884" />
    <path
       style="fill:none;stroke:#e37222;stroke-width:0.5;stroke-linecap:butt;stroke-linejoin:miter;stroke-miterlimit:4;stroke-dasharray:none;stroke-opacity:1"
       d="m 64.62311,120.55231 6.753776,15.89541"
       id="path886" />
    <path
       style="fill:none;stroke:#e37222;stroke-width:0.490353;stroke-linecap:butt;stroke-linejoin:miter;stroke-miterlimit:4;stroke-dasharray:none;stroke-opacity:1"
       d="m 47.557094,130.93888 23.88953,5.52312"
       id="path888" />
    <path
       style="fill:none;stroke:#e37222;stroke-width:0.5;stroke-linecap:butt;stroke-linejoin:miter;stroke-miterlimit:4;stroke-dasharray:none;stroke-opacity:1"
       d="m 54.543926,130.62939 16.912184,5.7412"
       id="path890" />
  </g>
  <g
     inkscape:groupmode="layer"
     id="layer2"
     inkscape:label="Ebene 2"
     transform="translate(-20,-100)">
    <ellipse
       style="fill:#343a40;fill-opacity:1;stroke:#343a40;stroke-width:0.476819;stroke-miterlimit:4;stroke-dasharray:none;stroke-opacity:1"
       id="ellipse1063"
       cx="71.5"
       cy="136.5"
       rx="1.2615902"
       ry="1.2615907" />
    <ellipse
       style="fill:#343a40;fill-opacity:1;stroke:#343a40;stroke-width:0.476819;stroke-miterlimit:4;stroke-dasharray:none;stroke-opacity:1"
       id="ellipse864"
       cx="47.5"
       cy="130.5"
       rx="1.2615902"
       ry="1.2615907" />
    <ellipse
       ry="1.2615907"
       rx="1.2615902"
       cy="130.5"
       cx="54.5"
       id="ellipse1061"
       style="fill:#a2ad00;fill-opacity:1;stroke:#a2ad00;stroke-width:0.476819;stroke-miterlimit:4;stroke-dasharray:none;stroke-opacity:1" />
    <ellipse
       style="fill:#343a40;fill-opacity:1;stroke:#343a40;stroke-width:0.476819;stroke-miterlimit:4;stroke-dasharray:none;stroke-opacity:1"
       id="ellipse860"
       cx="64.5"
       cy="120.5"
       rx="1.2615902"
       ry="1.2615907" />
    <ellipse
       ry="1.2615904"
       rx="1.2615899"
       cy="145.5"
       cx="47.5"
       id="ellipse862"
       style="fill:#343a40;fill-opacity:1;stroke:#343a40;stroke-width:0.476819;stroke-miterlimit:4;stroke-dasharray:none;stroke-opacity:1" />
    <ellipse
       ry="1.2615898"
       rx="1.2615892"
       cy="136.37082"
       cx="175.97395"
       id="ellipse1063-3"
       style="fill:#343a40;fill-opacity:1;stroke:#343a40;stroke-width:0.476819;stroke-miterlimit:4;stroke-dasharray:none;stroke-opacity:1" />
    <ellipse
       ry="1.2615898"
       rx="1.2615892"
       cy="124.33231"
       cx="132.05313"
       id="ellipse864-0"
       style="fill:#343a40;fill-opacity:1;stroke:#343a40;stroke-width:0.476819;stroke-miterlimit:4;stroke-dasharray:none;stroke-opacity:1" />
    <ellipse
       style="fill:#343a40;fill-opacity:1;stroke:#343a40;stroke-width:0.476819;stroke-miterlimit:4;stroke-dasharray:none;stroke-opacity:1"
       id="ellipse1061-1"
       cx="145.0177"
       cy="124.19998"
       rx="1.2615892"
       ry="1.2615898" />
    <ellipse
       ry="1.2615898"
       rx="1.2615892"
       cy="105.94375"
       cx="162.54634"
       id="ellipse860-3"
       style="fill:#343a40;fill-opacity:1;stroke:#343a40;stroke-width:0.476819;stroke-miterlimit:4;stroke-dasharray:none;stroke-opacity:1" />
    <ellipse
       style="fill:#343a40;fill-opacity:1;stroke:#343a40;stroke-width:0.476819;stroke-miterlimit:4;stroke-dasharray:none;stroke-opacity:1"
       id="ellipse862-2"
       cx="132.05312"
       cy="151.84897"
       rx="1.2615892"
       ry="1.2615898" />
    <rect
       style="display:inline;fill:#e37222;fill-opacity:1;stroke:#e37222;stroke-width:0.623;stroke-miterlimit:4;stroke-dasharray:none;stroke-opacity:1"
       id="rect29"
       width="9.3765545"
       height="6.3765545"
       x="21.381302"
       y="152.31172"
       ry="0.31510979" />
    <path
       id="path869"
       d="m 23.283333,153.45834 5.55625,3.96874"
       style="fill:none;stroke:#f8f9fa;stroke-width:0.625604;stroke-linecap:butt;stroke-linejoin:miter;stroke-miterlimit:4;stroke-dasharray:none;stroke-opacity:1" />
    <path
       style="fill:none;stroke:#f8f9fa;stroke-width:0.625605;stroke-linecap:butt;stroke-linejoin:miter;stroke-miterlimit:4;stroke-dasharray:none;stroke-opacity:1"
       d="m 23.283333,157.42706 5.55625,-3.96874"
       id="path869-0" />
  </g>
</svg>
