<svg xmlns="http://www.w3.org/2000/svg" width="300" height="200" viewBox="0 0 150 100">
  <circle r="3" cx="25" cy="16" fill="#0065bd"/>
  <circle r="3" cx="15" cy="22" fill="#0065bd"/>
  <circle r="3" cx="20" cy="37" fill="#0065bd"/>
  <circle r="3" cx="32" cy="30" fill="#0065bd"/>
  <circle r="3" cx="134" cy="38" fill="#e37222"/>
  <circle r="3" cx="123" cy="32" fill="#e37222"/>
  <circle r="3" cx="123" cy="32" fill="#e37222"/>
  <circle r="3" cx="115" cy="41" fill="#e37222"/>
  <circle r="3" cx="125" cy="48" fill="#e37222"/>
  <circle r="3" cx="134" cy="46" fill="#e37222"/>
  <circle r="3" cx="66" cy="68" fill="#a2ad00"/>
  <circle r="3" cx="58" cy="76" fill="#a2ad00"/>
  <circle r="3" cx="72" cy="79" fill="#a2ad00"/>
  <circle r="3" cx="78" cy="71" fill="#a2ad00"/>
  <circle r="3" cx="36" cy="21" fill="#0065bd"/>
  <circle r="3" cx="34" cy="44" fill="#0065bd"/>
  <circle r="3" cx="12" cy="37" fill="#0065bd"/>
  <circle r="3" cx="24" cy="27" fill="#0065bd"/>
  <circle r="3" cx="55" cy="67" fill="#a2ad00"/>
  <circle r="3" cx="65" cy="84" fill="#a2ad00"/>
  <circle r="3" cx="114" cy="54" fill="#e37222"/>
  <circle r="3" cx="113" cy="32" fill="#e37222"/>
  <circle r="3" cx="104" cy="46" fill="#e37222"/>
  <circle r="3" cx="132" cy="27" fill="#e37222"/>
  <circle r="3" cx="130" cy="60" fill="#e37222"/>
  <circle r="3" cx="122" cy="24" fill="#e37222"/>
  <circle r="3" cx="102" cy="35" fill="#e37222"/>
  <circle r="3" cx="42" cy="35" fill="#0065bd"/>
  <circle r="3" cx="62" cy="60" fill="#a2ad00"/>
  <circle r="3" cx="76" cy="62" fill="#a2ad00"/>
  <g stroke-linecap="round">
    <line x1="21" y1="24" x2="33" y2="36" stroke="#fff" stroke-width="4"/>
    <line x1="33" y1="24" x2="21" y2="36" stroke="#fff" stroke-width="4"/>
    <line x1="21" y1="24" x2="33" y2="36" stroke="#0065bd" stroke-width="2"/>
    <line x1="33" y1="24" x2="21" y2="36" stroke="#0065bd" stroke-width="2"/>
  </g>
  <g stroke-linecap="round">
    <line x1="61" y1="65" x2="73" y2="77" stroke="#fff" stroke-width="4"/>
    <line x1="73" y1="65" x2="61" y2="77" stroke="#fff" stroke-width="4"/>
    <line x1="61" y1="65" x2="73" y2="77" stroke="#a2ad00" stroke-width="2"/>
    <line x1="73" y1="65" x2="61" y2="77" stroke="#a2ad00" stroke-width="2"/>
  </g>
  <g stroke-linecap="round">
    <line x1="115" y1="34" x2="127" y2="46" stroke="#fff" stroke-width="4"/>
    <line x1="127" y1="34" x2="115" y2="46" stroke="#fff" stroke-width="4"/>
    <line x1="115" y1="34" x2="127" y2="46" stroke="#e37222" stroke-width="2"/>
    <line x1="127" y1="34" x2="115" y2="46" stroke="#e37222" stroke-width="2"/>
  </g>
</svg>
