<svg xmlns="http://www.w3.org/2000/svg" width="390" height="130" viewBox="0 0 300 100" class="{{ include.class }}">
  <g>
    <path d="M1,93.7a17,17,0,0,0,8.5-2.2c2.4-1.4,3.1-2.7,6-5a27.8,27.8,0,0,1,3.1-2.2c2.9-1.7,5-2.1,7.9-3.8,6.8-4.1,5.3-8.1,13-16a27,27,0,0,1,8.2-6,18.5,18.5,0,0,0,4.8-4c7.4-8.3,4.4-13.1,11-19l1-.8h0c5.6-4.3,9.3-1.6,16-7.1s5-7.7,11-16A72.7,72.7,0,0,1,99,2.7" fill="none" stroke="#0065bd" stroke-linecap="round" stroke-miterlimit="10" stroke-width="2"/>
    <path d="M61.3,1a30.7,30.7,0,0,1,5.7,11.5c.2.6.3,1.3.4,2a31.9,31.9,0,0,1-3,20.1h0" fill="none" stroke="#0065bd" stroke-linecap="round" stroke-miterlimit="10" stroke-width="2"/>
    <path d="M47.7,58.5a161.3,161.3,0,0,1,21.8,1c11.1,1.3,17.3,2,24,6A48.9,48.9,0,0,1,99,69.7" fill="none" stroke="#0065bd" stroke-linecap="round" stroke-miterlimit="10" stroke-width="2"/>
    <path d="M19.5,57.5a22.7,22.7,0,0,1,4,16,21.9,21.9,0,0,1-4.9,10.8" fill="none" stroke="#0065bd" stroke-linecap="round" stroke-miterlimit="10"/>
    <path d="M69.5,59.5a61.4,61.4,0,0,0,9-2C86.9,55,94.2,50.3,99,46.6" fill="none" stroke="#0065bd" stroke-linecap="round" stroke-linejoin="round"/>
    <path d="M54.5,5.5a12.9,12.9,0,0,1,12.6,7" fill="none" stroke="#0065bd" stroke-linecap="round" stroke-miterlimit="10"/>
    <rect x="7" y="8" width="33" height="9" fill="#e37222"/>
    <rect x="73" y="5" width="13" height="5" fill="#e37222"/>
    <rect x="76" y="17" width="4" height="4" fill="#e37222"/>
    <rect x="69" y="38" width="19" height="12" fill="#e37222"/>
    <rect x="40" y="31" width="4" height="4" fill="#e37222"/>
    <rect x="8" y="31" width="6" height="6" fill="#e37222"/>
    <rect x="22" y="26" width="9" height="29" fill="#e37222"/>
    <rect x="51" y="71" width="10" height="9" fill="#e37222"/>
    <rect x="69" y="71" width="11" height="11" fill="#e37222"/>
    <rect x="29" y="88" width="5" height="5" fill="#e37222"/>
    <rect x="47" y="88" width="26" height="6" fill="#e37222"/>
    <rect x="88" y="86" width="5" height="5" fill="#e37222"/>
    <rect x="7" y="67" width="5" height="7" fill="#e37222"/>
  </g>
  <g>
    <path d="M201,93.7a17,17,0,0,0,8.5-2.2c2.4-1.4,3.1-2.7,6-5a27.8,27.8,0,0,1,3.1-2.2c2.9-1.7,5-2.1,7.9-3.8,6.8-4.1,5.3-8.1,13-16a27,27,0,0,1,8.2-6,18.5,18.5,0,0,0,4.8-4c7.4-8.3,4.4-13.1,11-19l1-.8h0c5.6-4.3,9.3-1.6,16-7.1s5-7.7,11-16A72.7,72.7,0,0,1,299,2.7" fill="none" stroke="#0065bd" stroke-linecap="round" stroke-miterlimit="10" stroke-width="2"/>
    <path d="M261.3,1a30.7,30.7,0,0,1,5.8,11.5c.2.6.3,1.3.4,2a31.9,31.9,0,0,1-3,20.1h0" fill="none" stroke="#0065bd" stroke-linecap="round" stroke-miterlimit="10" stroke-width="2"/>
    <path d="M247.7,58.5a161.3,161.3,0,0,1,21.8,1c11.1,1.3,17.3,2,24,6a48.9,48.9,0,0,1,5.5,4.2" fill="none" stroke="#0065bd" stroke-linecap="round" stroke-miterlimit="10" stroke-width="2"/>
    <rect x="207" y="8" width="33" height="9" fill="#e37222"/>
    <rect x="273" y="5" width="13" height="5" fill="#e37222"/>
    <rect x="269" y="38" width="19" height="12" fill="#e37222"/>
    <rect x="222" y="26" width="9" height="29" fill="#e37222"/>
    <rect x="251" y="71" width="10" height="9" fill="#e37222"/>
    <rect x="269" y="71" width="11" height="11" fill="#e37222"/>
    <rect x="247" y="88" width="26" height="6" fill="#e37222"/>
    <rect x="207" y="67" width="5" height="7" fill="#e37222"/>
  </g>
  <g>
    <rect x="1" y="1" width="98" height="98" rx="2" ry="2" fill="none" stroke="#343a40" stroke-miterlimit="10" stroke-width="2"/>
    <rect x="201" y="1" width="98" height="98" rx="2" ry="2" fill="none" stroke="#343a40" stroke-miterlimit="10" stroke-width="2"/>
    <g>
      <line x1="125" y1="50" x2="169.6" y2="50" fill="none" stroke="#343a40" stroke-miterlimit="10" stroke-width="5"/>
      <polygon points="153 70.4 149.6 66.8 167.7 50 149.6 33.2 153 29.6 175 50 153 70.4" fill="#343a40"/>
    </g>
  </g>
</svg>
