<svg xmlns="http://www.w3.org/2000/svg" width="390" height="130" viewBox="0 0 300 100" class="{{ include.class }}">
  <g>
    <polyline points="1 92.5 6 89 10 90 13 85 17 71 24 65 36 64 41 60 48 50 47 41 56 42 66 37 62 27 99 6.3" fill="none" stroke="#0065bd" stroke-miterlimit="10" stroke-width="2"/>
    <rect x="31" y="13.5" width="25" height="10" transform="translate(6.9 48.5) rotate(-62.4)" fill="#e37222"/>
    <rect x="7" y="42.5" width="25" height="10" transform="translate(-25 21.8) rotate(-37.7)" fill="#e37222"/>
    <polygon points="61 63 54 86 76 86 76 80 82 80 80 73 76 73 76 63 61 63" fill="#e37222"/>
  </g>
  <g>
    <path d="M201,93a27.4,27.4,0,0,0,8-5c7.1-6.4,5.7-12.2,13-19,1.7-1.5,5.4-3.7,13-8s13.1-6.7,14-11-1.4-5.2,0-7,8.7,1.1,13-2,2.1-5.6,4-11,6-9.5,11-14A55.5,55.5,0,0,1,299,4.3" fill="none" stroke="#0065bd" stroke-miterlimit="10" stroke-width="2"/>
    <rect x="229" y="14.5" width="25" height="10" transform="translate(87 206.1) rotate(-55)" fill="#e37222"/>
    <rect x="210" y="41.5" width="25" height="10" transform="matrix(0.57, -0.82, 0.82, 0.57, 56.79, 202.09)" fill="#e37222"/>
    <polygon points="260 63 260 86 276 86 276 80 280 80 280 73 276 73 276 63 260 63" fill="#e37222"/>
  </g>
  <g>
    <rect x="1" y="1" width="98" height="98" rx="2" ry="2" fill="none" stroke="#343a40" stroke-miterlimit="10" stroke-width="2"/>
    <rect x="201" y="1" width="98" height="98" rx="2" ry="2" fill="none" stroke="#343a40" stroke-miterlimit="10" stroke-width="2"/>
    <g>
      <line x1="125" y1="50" x2="169.6" y2="50" fill="none" stroke="#343a40" stroke-miterlimit="10" stroke-width="5"/>
      <polygon points="153 70.4 149.6 66.8 167.7 50 149.6 33.2 153 29.6 175 50 153 70.4" fill="#343a40"/>
    </g>
  </g>
</svg>
